{
	"required": true,
	"minVersion": "${mixin_minimum_version}",
	"package": "de.dpk02.continuousbiomes.mixins",
	"compatibilityLevel": "JAVA_21",
	"refmap": "continuousbiomes.mixins.refmap.json",
	"mixins": [
		"CBDensityFunctions",
		"CBDensityFunctionsAccessor"
	],
	"client": [],
	"server" : [],
	"injectors": {
		"defaultRequire": 1
	}
}